{
  "hits": [
    {
      "id": "MU589117",
      "type": "single base substitution",
      "chromosome": "10",
      "start": 38654432,
      "end": 38654432,
      "mutation": "A>G",
      "study": []
    },
    {
      "id": "MU588573",
      "type": "single base substitution",
      "chromosome": "7",
      "start": 55221822,
      "end": 55221822,
      "mutation": "C>T",
      "study": []
    },
    {
      "id": "MU589341",
      "type": "single base substitution",
      "chromosome": "7",
      "start": 55233043,
      "end": 55233043,
      "mutation": "G>T",
      "study": []
    },
    {
      "id": "MU866",
      "type": "single base substitution",
      "chromosome": "2",
      "start": 209113112,
      "end": 209113112,
      "mutation": "C>T",
      "study": []
    },
    {
      "id": "MU594026",
      "type": "single base substitution",
      "chromosome": "15",
      "start": 102515299,
      "end": 102515299,
      "mutation": "G>A",
      "study": []
    },
    {
      "id": "MU592348",
      "type": "single base substitution",
      "chromosome": "12",
      "start": 13028751,
      "end": 13028751,
      "mutation": "G>C",
      "study": []
    },
    {
      "id": "MU589071",
      "type": "single base substitution",
      "chromosome": "19",
      "start": 58385546,
      "end": 58385546,
      "mutation": "G>T",
      "study": []
    },
    {
      "id": "MU36388",
      "type": "single base substitution",
      "chromosome": "2",
      "start": 114355998,
      "end": 114355998,
      "mutation": "C>G",
      "study": []
    },
    {
      "id": "MU589543",
      "type": "single base substitution",
      "chromosome": "19",
      "start": 24010294,
      "end": 24010294,
      "mutation": "C>G",
      "study": []
    },
    {
      "id": "MU590981",
      "type": "single base substitution",
      "chromosome": "2",
      "start": 114357557,
      "end": 114357557,
      "mutation": "A>G",
      "study": []
    },
    {
      "id": "MU590044",
      "type": "single base substitution",
      "chromosome": "9",
      "start": 141071110,
      "end": 141071110,
      "mutation": "A>G",
      "study": []
    },
    {
      "id": "MU30748",
      "type": "single base substitution",
      "chromosome": "17",
      "start": 7577538,
      "end": 7577538,
      "mutation": "C>T",
      "study": []
    },
    {
      "id": "MU589105",
      "type": "single base substitution",
      "chromosome": "2",
      "start": 97869931,
      "end": 97869931,
      "mutation": "A>T",
      "study": []
    },
    {
      "id": "MU591051",
      "type": "single base substitution",
      "chromosome": "2",
      "start": 113127775,
      "end": 113127775,
      "mutation": "G>C",
      "study": []
    },
    {
      "id": "MU589331",
      "type": "single base substitution",
      "chromosome": "10",
      "start": 89717672,
      "end": 89717672,
      "mutation": "C>T",
      "study": []
    },
    {
      "id": "MU590942",
      "type": "single base substitution",
      "chromosome": "7",
      "start": 55221821,
      "end": 55221821,
      "mutation": "G>A",
      "study": []
    },
    {
      "id": "MU592738",
      "type": "single base substitution",
      "chromosome": "1",
      "start": 145367767,
      "end": 145367767,
      "mutation": "G>A",
      "study": []
    },
    {
      "id": "MU24291",
      "type": "single base substitution",
      "chromosome": "16",
      "start": 21817457,
      "end": 21817457,
      "mutation": "G>A",
      "study": []
    },
    {
      "id": "MU62030",
      "type": "single base substitution",
      "chromosome": "7",
      "start": 140453136,
      "end": 140453136,
      "mutation": "A>T",
      "study": []
    },
    {
      "id": "MU588643",
      "type": "deletion of <=200bp",
      "chromosome": "12",
      "start": 11546320,
      "end": 11546322,
      "mutation": "TTG>-",
      "study": []
    },
    {
      "id": "MU591091",
      "type": "single base substitution",
      "chromosome": "19",
      "start": 33695616,
      "end": 33695616,
      "mutation": "A>C",
      "study": []
    },
    {
      "id": "MU592955",
      "type": "single base substitution",
      "chromosome": "16",
      "start": 32890622,
      "end": 32890622,
      "mutation": "T>G",
      "study": []
    },
    {
      "id": "MU10935",
      "type": "single base substitution",
      "chromosome": "3",
      "start": 195505836,
      "end": 195505836,
      "mutation": "G>C",
      "study": []
    },
    {
      "id": "MU589353",
      "type": "single base substitution",
      "chromosome": "3",
      "start": 195400728,
      "end": 195400728,
      "mutation": "A>G",
      "study": []
    },
    {
      "id": "MU599462",
      "type": "single base substitution",
      "chromosome": "10",
      "start": 112696573,
      "end": 112696573,
      "mutation": "T>C",
      "study": []
    },
    {
      "id": "MU597540",
      "type": "single base substitution",
      "chromosome": "4",
      "start": 69870669,
      "end": 69870669,
      "mutation": "C>A",
      "study": []
    },
    {
      "id": "MU589075",
      "type": "single base substitution",
      "chromosome": "15",
      "start": 83014106,
      "end": 83014106,
      "mutation": "T>C",
      "study": []
    },
    {
      "id": "MU590298",
      "type": "single base substitution",
      "chromosome": "7",
      "start": 55211080,
      "end": 55211080,
      "mutation": "G>A",
      "study": []
    },
    {
      "id": "MU601968",
      "type": "single base substitution",
      "chromosome": "7",
      "start": 55220274,
      "end": 55220274,
      "mutation": "C>T",
      "study": []
    },
    {
      "id": "MU256",
      "type": "single base substitution",
      "chromosome": "17",
      "start": 7577094,
      "end": 7577094,
      "mutation": "G>A",
      "study": []
    },
    {
      "id": "MU594506",
      "type": "single base substitution",
      "chromosome": "18",
      "start": 14513764,
      "end": 14513764,
      "mutation": "C>T",
      "study": []
    },
    {
      "id": "MU5219",
      "type": "single base substitution",
      "chromosome": "3",
      "start": 178936091,
      "end": 178936091,
      "mutation": "G>A",
      "study": []
    },
    {
      "id": "MU24637",
      "type": "single base substitution",
      "chromosome": "17",
      "start": 7577120,
      "end": 7577120,
      "mutation": "C>T",
      "study": []
    },
    {
      "id": "MU600459",
      "type": "single base substitution",
      "chromosome": "18",
      "start": 14513675,
      "end": 14513675,
      "mutation": "T>C",
      "study": []
    },
    {
      "id": "MU592069",
      "type": "single base substitution",
      "chromosome": "10",
      "start": 51093329,
      "end": 51093329,
      "mutation": "C>T",
      "study": []
    },
    {
      "id": "MU591879",
      "type": "single base substitution",
      "chromosome": "3",
      "start": 195410687,
      "end": 195410687,
      "mutation": "T>A",
      "study": []
    },
    {
      "id": "MU593489",
      "type": "single base substitution",
      "chromosome": "13",
      "start": 75814354,
      "end": 75814354,
      "mutation": "C>G",
      "study": []
    },
    {
      "id": "MU600120",
      "type": "single base substitution",
      "chromosome": "1",
      "start": 145324371,
      "end": 145324371,
      "mutation": "T>C",
      "study": []
    },
    {
      "id": "MU7870",
      "type": "single base substitution",
      "chromosome": "17",
      "start": 7578406,
      "end": 7578406,
      "mutation": "C>T",
      "study": []
    },
    {
      "id": "MU589895",
      "type": "single base substitution",
      "chromosome": "9",
      "start": 141070969,
      "end": 141070969,
      "mutation": "A>G",
      "study": []
    },
    {
      "id": "MU588975",
      "type": "single base substitution",
      "chromosome": "13",
      "start": 48953730,
      "end": 48953730,
      "mutation": "C>T",
      "study": []
    },
    {
      "id": "MU2245097",
      "type": "insertion of <=200bp",
      "chromosome": "7",
      "start": 131195806,
      "end": 131195806,
      "mutation": "->G",
      "study": []
    },
    {
      "id": "MU594999",
      "type": "single base substitution",
      "chromosome": "15",
      "start": 41146113,
      "end": 41146113,
      "mutation": "C>T",
      "study": []
    },
    {
      "id": "MU17943",
      "type": "single base substitution",
      "chromosome": "17",
      "start": 7577539,
      "end": 7577539,
      "mutation": "G>A",
      "study": []
    },
    {
      "id": "MU591431",
      "type": "single base substitution",
      "chromosome": "5",
      "start": 56160697,
      "end": 56160697,
      "mutation": "C>T",
      "study": []
    },
    {
      "id": "MU588605",
      "type": "single base substitution",
      "chromosome": "21",
      "start": 46011400,
      "end": 46011400,
      "mutation": "G>A",
      "study": []
    },
    {
      "id": "MU10839",
      "type": "single base substitution",
      "chromosome": "20",
      "start": 31022345,
      "end": 31022345,
      "mutation": "C>T",
      "study": []
    },
    {
      "id": "MU590667",
      "type": "single base substitution",
      "chromosome": "15",
      "start": 42193062,
      "end": 42193062,
      "mutation": "G>A",
      "study": []
    },
    {
      "id": "MU602357",
      "type": "single base substitution",
      "chromosome": "7",
      "start": 55210077,
      "end": 55210077,
      "mutation": "G>A",
      "study": []
    },
    {
      "id": "MU6581",
      "type": "single base substitution",
      "chromosome": "17",
      "start": 7578263,
      "end": 7578263,
      "mutation": "G>A",
      "study": []
    },
    {
      "id": "MU596199",
      "type": "single base substitution",
      "chromosome": "13",
      "start": 20039688,
      "end": 20039688,
      "mutation": "G>A",
      "study": []
    },
    {
      "id": "MU592680",
      "type": "single base substitution",
      "chromosome": "20",
      "start": 29628300,
      "end": 29628300,
      "mutation": "G>A",
      "study": []
    },
    {
      "id": "MU598762",
      "type": "single base substitution",
      "chromosome": "15",
      "start": 22709152,
      "end": 22709152,
      "mutation": "G>T",
      "study": []
    },
    {
      "id": "MU25838",
      "type": "single base substitution",
      "chromosome": "17",
      "start": 7577548,
      "end": 7577548,
      "mutation": "C>T",
      "study": []
    },
    {
      "id": "MU588467",
      "type": "deletion of <=200bp",
      "chromosome": "7",
      "start": 44684936,
      "end": 44684936,
      "mutation": "T>-",
      "study": []
    },
    {
      "id": "MU588799",
      "type": "single base substitution",
      "chromosome": "10",
      "start": 89692904,
      "end": 89692904,
      "mutation": "C>T",
      "study": []
    },
    {
      "id": "MU590556",
      "type": "single base substitution",
      "chromosome": "5",
      "start": 67589138,
      "end": 67589138,
      "mutation": "G>A",
      "study": []
    },
    {
      "id": "MU590964",
      "type": "single base substitution",
      "chromosome": "7",
      "start": 55223543,
      "end": 55223543,
      "mutation": "C>T",
      "study": []
    },
    {
      "id": "MU596550",
      "type": "single base substitution",
      "chromosome": "17",
      "start": 21731144,
      "end": 21731144,
      "mutation": "T>G",
      "study": []
    },
    {
      "id": "MU594674",
      "type": "deletion of <=200bp",
      "chromosome": "17",
      "start": 45219612,
      "end": 45219612,
      "mutation": "A>-",
      "study": []
    },
    {
      "id": "MU601391",
      "type": "single base substitution",
      "chromosome": "7",
      "start": 72093896,
      "end": 72093896,
      "mutation": "C>T",
      "study": []
    },
    {
      "id": "MU589580",
      "type": "single base substitution",
      "chromosome": "10",
      "start": 135491113,
      "end": 135491113,
      "mutation": "G>A",
      "study": []
    },
    {
      "id": "MU18569",
      "type": "single base substitution",
      "chromosome": "15",
      "start": 83014132,
      "end": 83014132,
      "mutation": "C>G",
      "study": []
    },
    {
      "id": "MU588398",
      "type": "single base substitution",
      "chromosome": "16",
      "start": 15457701,
      "end": 15457701,
      "mutation": "G>A",
      "study": []
    },
    {
      "id": "MU590052",
      "type": "single base substitution",
      "chromosome": "1",
      "start": 145367739,
      "end": 145367739,
      "mutation": "A>G",
      "study": []
    },
    {
      "id": "MU592585",
      "type": "single base substitution",
      "chromosome": "10",
      "start": 89720852,
      "end": 89720852,
      "mutation": "C>T",
      "study": []
    },
    {
      "id": "MU589990",
      "type": "deletion of <=200bp",
      "chromosome": "19",
      "start": 45911859,
      "end": 45911861,
      "mutation": "GAA>-",
      "study": []
    },
    {
      "id": "MU592002",
      "type": "single base substitution",
      "chromosome": "1",
      "start": 148933289,
      "end": 148933289,
      "mutation": "A>G",
      "study": []
    },
    {
      "id": "MU588860",
      "type": "single base substitution",
      "chromosome": "2",
      "start": 54756736,
      "end": 54756736,
      "mutation": "T>C",
      "study": []
    },
    {
      "id": "MU107439",
      "type": "single base substitution",
      "chromosome": "17",
      "start": 39274206,
      "end": 39274206,
      "mutation": "C>T",
      "study": []
    },
    {
      "id": "MU594300",
      "type": "single base substitution",
      "chromosome": "7",
      "start": 55221822,
      "end": 55221822,
      "mutation": "C>A",
      "study": []
    },
    {
      "id": "MU69856",
      "type": "single base substitution",
      "chromosome": "19",
      "start": 58385762,
      "end": 58385762,
      "mutation": "C>G",
      "study": []
    },
    {
      "id": "MU597080",
      "type": "single base substitution",
      "chromosome": "19",
      "start": 12187275,
      "end": 12187275,
      "mutation": "G>C",
      "study": []
    },
    {
      "id": "MU589735",
      "type": "single base substitution",
      "chromosome": "17",
      "start": 21730916,
      "end": 21730916,
      "mutation": "G>T",
      "study": []
    },
    {
      "id": "MU33642",
      "type": "single base substitution",
      "chromosome": "2",
      "start": 179463526,
      "end": 179463526,
      "mutation": "C>T",
      "study": []
    },
    {
      "id": "MU595841",
      "type": "single base substitution",
      "chromosome": "19",
      "start": 35232200,
      "end": 35232200,
      "mutation": "T>G",
      "study": []
    },
    {
      "id": "MU26668",
      "type": "single base substitution",
      "chromosome": "17",
      "start": 7577568,
      "end": 7577568,
      "mutation": "C>A",
      "study": []
    },
    {
      "id": "MU604683",
      "type": "single base substitution",
      "chromosome": "19",
      "start": 51466671,
      "end": 51466671,
      "mutation": "C>T",
      "study": []
    },
    {
      "id": "MU588599",
      "type": "single base substitution",
      "chromosome": "22",
      "start": 21829507,
      "end": 21829507,
      "mutation": "G>A",
      "study": []
    },
    {
      "id": "MU588708",
      "type": "single base substitution",
      "chromosome": "7",
      "start": 55241677,
      "end": 55241677,
      "mutation": "G>A",
      "study": []
    },
    {
      "id": "MU2244791",
      "type": "insertion of <=200bp",
      "chromosome": "3",
      "start": 195400814,
      "end": 195400814,
      "mutation": "->TT",
      "study": []
    },
    {
      "id": "MU597696",
      "type": "single base substitution",
      "chromosome": "2",
      "start": 113940279,
      "end": 113940279,
      "mutation": "C>T",
      "study": []
    },
    {
      "id": "MU597164",
      "type": "single base substitution",
      "chromosome": "7",
      "start": 55233037,
      "end": 55233037,
      "mutation": "C>T",
      "study": []
    },
    {
      "id": "MU2089",
      "type": "deletion of <=200bp",
      "chromosome": "10",
      "start": 89720799,
      "end": 89720802,
      "mutation": "TACT>-",
      "study": []
    },
    {
      "id": "MU596181",
      "type": "single base substitution",
      "chromosome": "16",
      "start": 1507256,
      "end": 1507256,
      "mutation": "T>C",
      "study": []
    },
    {
      "id": "MU144178",
      "type": "single base substitution",
      "chromosome": "17",
      "start": 7578457,
      "end": 7578457,
      "mutation": "C>T",
      "study": []
    },
    {
      "id": "MU589798",
      "type": "single base substitution",
      "chromosome": "1",
      "start": 228520994,
      "end": 228520994,
      "mutation": "C>T",
      "study": []
    },
    {
      "id": "MU588607",
      "type": "single base substitution",
      "chromosome": "16",
      "start": 23226531,
      "end": 23226531,
      "mutation": "G>A",
      "study": []
    },
    {
      "id": "MU599553",
      "type": "single base substitution",
      "chromosome": "7",
      "start": 35130052,
      "end": 35130052,
      "mutation": "C>T",
      "study": []
    },
    {
      "id": "MU595127",
      "type": "single base substitution",
      "chromosome": "5",
      "start": 140188686,
      "end": 140188686,
      "mutation": "C>T",
      "study": []
    },
    {
      "id": "MU594918",
      "type": "single base substitution",
      "chromosome": "X",
      "start": 153588445,
      "end": 153588445,
      "mutation": "C>T",
      "study": []
    },
    {
      "id": "MU2245277",
      "type": "insertion of <=200bp",
      "chromosome": "7",
      "start": 100684307,
      "end": 100684307,
      "mutation": "->CTC",
      "study": []
    },
    {
      "id": "MU589443",
      "type": "single base substitution",
      "chromosome": "1",
      "start": 169698774,
      "end": 169698774,
      "mutation": "G>A",
      "study": []
    },
    {
      "id": "MU593296",
      "type": "single base substitution",
      "chromosome": "1",
      "start": 154062058,
      "end": 154062058,
      "mutation": "G>A",
      "study": []
    },
    {
      "id": "MU29477",
      "type": "single base substitution",
      "chromosome": "1",
      "start": 16918653,
      "end": 16918653,
      "mutation": "C>T",
      "study": []
    },
    {
      "id": "MU589549",
      "type": "single base substitution",
      "chromosome": "15",
      "start": 102292785,
      "end": 102292785,
      "mutation": "C>G",
      "study": []
    },
    {
      "id": "MU605194",
      "type": "single base substitution",
      "chromosome": "1",
      "start": 152278815,
      "end": 152278815,
      "mutation": "G>A",
      "study": []
    },
    {
      "id": "MU589261",
      "type": "single base substitution",
      "chromosome": "1",
      "start": 145360624,
      "end": 145360624,
      "mutation": "G>A",
      "study": []
    },
    {
      "id": "MU606487",
      "type": "single base substitution",
      "chromosome": "6",
      "start": 74227627,
      "end": 74227627,
      "mutation": "G>A",
      "study": []
    },
    {
      "id": "MU599178",
      "type": "single base substitution",
      "chromosome": "4",
      "start": 70079956,
      "end": 70079956,
      "mutation": "G>A",
      "study": []
    }
  ],
  "facets": {},
  "pagination": {
    "count": 100,
    "total": 24761,
    "page": 1,
    "pages": 248,
    "order": "desc",
    "sort": "affectedDonorCountFiltered",
    "from": 1,
    "size": 100
  }
}
